<svg width="22" height="22" viewBox="0 0 22 22" fill="none" xmlns="http://www.w3.org/2000/svg">
<path fill-rule="evenodd" clip-rule="evenodd" d="M18.333 11.061H3.66634C2.65342 11.061 1.83301 11.8815 1.83301 12.8944V15.583C1.83301 16.089 2.24367 16.4996 2.74967 16.4996H19.2497C19.7557 16.4996 20.1663 16.089 20.1663 15.583V12.8944C20.1663 11.8815 19.3459 11.061 18.333 11.061Z" stroke="#222222" stroke-width="1.5" stroke-linecap="round" stroke-linejoin="round"/>
<path d="M3.20801 11.1192V11.0614V11.0614C3.20801 9.50858 4.46659 8.25 6.01942 8.25H8.15801C9.47434 8.25 10.5413 9.317 10.5413 10.6333V11.0614" stroke="#222222" stroke-width="1.5" stroke-linecap="round" stroke-linejoin="round"/>
<path d="M10.541 11.0614V11.0614C10.541 9.50858 11.7996 8.25 13.3524 8.25H15.9805C17.5333 8.25 18.7919 9.50858 18.7919 11.0614V11.0614V11.1192" stroke="#222222" stroke-width="1.5" stroke-linecap="round" stroke-linejoin="round"/>
<path d="M3.66602 9.524V6.4165C3.66602 4.89759 4.8971 3.6665 6.41602 3.6665H15.5827C17.1016 3.6665 18.3327 4.89759 18.3327 6.4165V9.524" stroke="#222222" stroke-width="1.5" stroke-linecap="round" stroke-linejoin="round"/>
<path d="M19.2493 16.5V18.3333" stroke="#222222" stroke-width="1.5" stroke-linecap="round" stroke-linejoin="round"/>
<path d="M2.74935 16.5V18.3333" stroke="#222222" stroke-width="1.5" stroke-linecap="round" stroke-linejoin="round"/>
</svg>
