<svg width="44" height="44" viewBox="0 0 44 44" fill="none" xmlns="http://www.w3.org/2000/svg">
<circle cx="22" cy="22" r="22" fill="#FEFBF6"/>
<path d="M21.4321 16.1998C21.5745 16.365 21.7819 16.46 22 16.46C22.2181 16.46 22.4255 16.365 22.5679 16.1998C23.1633 15.5096 24.162 14.75 25.7 14.75C28.3462 14.75 30.25 17.2754 30.25 19.76C30.25 20.9685 29.775 22.1666 28.9958 23.3138C28.2174 24.4599 27.1634 25.5132 26.0802 26.4148C24.9999 27.314 23.9113 28.0454 23.0827 28.5517C22.6689 28.8046 22.3232 28.9993 22.0798 29.1291C22.0516 29.1441 22.025 29.1582 22 29.1713C21.975 29.1582 21.9484 29.1441 21.9202 29.1291C21.6768 28.9993 21.3311 28.8046 20.9173 28.5517C20.0887 28.0454 19.0001 27.314 17.9198 26.4148C16.8366 25.5132 15.7826 24.4599 15.0042 23.3138C14.225 22.1666 13.75 20.9685 13.75 19.76C13.75 17.2754 15.6538 14.75 18.3 14.75C19.838 14.75 20.8367 15.5096 21.4321 16.1998Z" stroke="#104551" stroke-width="1.5" stroke-linecap="round" stroke-linejoin="round"/>
</svg>
