<svg width="32" height="32" viewBox="0 0 32 32" fill="none" xmlns="http://www.w3.org/2000/svg">
<rect width="32" height="32" rx="5" fill="#C9DBD8"/>
<path fill-rule="evenodd" clip-rule="evenodd" d="M5 0H27C29.7614 0 32 2.23858 32 5V27C32 29.7614 29.7614 32 27 32H5C2.23858 32 0 29.7614 0 27V5C0 2.23858 2.23858 0 5 0ZM16.6919 12.0074C15.2589 12.6034 12.3949 13.8371 8.09992 15.7083C7.40248 15.9856 7.03714 16.257 7.00388 16.5223C6.94767 16.9706 7.50915 17.1472 8.27374 17.3876C8.37774 17.4203 8.4855 17.4542 8.59598 17.4901C9.34822 17.7346 10.3601 18.0207 10.8862 18.0321C11.3633 18.0424 11.8959 17.8457 12.4839 17.4419C16.4968 14.7331 18.5683 13.3639 18.6983 13.3344C18.7901 13.3136 18.9172 13.2874 19.0034 13.3639C19.0895 13.4405 19.0811 13.5855 19.0719 13.6244C19.0163 13.8615 16.8123 15.9106 15.6717 16.971C15.3161 17.3015 15.0639 17.536 15.0124 17.5896C14.8969 17.7096 14.7791 17.823 14.666 17.9321C13.9672 18.6058 13.4431 19.111 14.695 19.936C15.2967 20.3325 15.7781 20.6603 16.2584 20.9874C16.7829 21.3446 17.306 21.7009 17.9829 22.1446C18.1554 22.2576 18.3201 22.375 18.4805 22.4894C19.0909 22.9246 19.6393 23.3155 20.3168 23.2532C20.7105 23.217 21.1172 22.8468 21.3237 21.7427C21.8118 19.1335 22.7712 13.4801 22.9929 11.1505C23.0123 10.9464 22.9879 10.6851 22.9683 10.5705C22.9486 10.4558 22.9076 10.2924 22.7586 10.1715C22.582 10.0283 22.3095 9.99805 22.1877 10.0001C21.6335 10.01 20.7834 10.3056 16.6919 12.0074Z" fill="#104551"/>
</svg>
