<svg width="24" height="24" viewBox="0 0 24 24" fill="none" xmlns="http://www.w3.org/2000/svg">
<path fill-rule="evenodd" clip-rule="evenodd" d="M18.2022 5.76205C16.5562 4.11505 14.3672 3.20705 12.0352 3.20605C7.22819 3.20605 3.31719 7.11505 3.31619 11.9201C3.31419 13.4491 3.71519 14.9521 4.47919 16.2771L3.24219 20.7931L7.86419 19.5811C9.14319 20.2771 10.5752 20.6421 12.0312 20.6421H12.0352C16.8402 20.6421 20.7512 16.7321 20.7532 11.9271C20.7542 9.59905 19.8482 7.41005 18.2022 5.76205Z" stroke="#F9F9F8" stroke-width="1.5" stroke-linecap="round" stroke-linejoin="round"/>
<path d="M13.0938 13.5599L13.4997 13.1569C13.8727 12.7869 14.4628 12.7399 14.8928 13.0419C15.3088 13.3339 15.6847 13.5959 16.0347 13.8399C16.5907 14.2259 16.6578 15.0179 16.1788 15.4959L15.8198 15.8549" stroke="#F9F9F8" stroke-width="1.5" stroke-linecap="round" stroke-linejoin="round"/>
<path d="M8.14844 8.17938L8.50744 7.82038C8.98544 7.34238 9.77744 7.40938 10.1634 7.96438C10.4064 8.31438 10.6684 8.69038 10.9614 9.10638C11.2634 9.53638 11.2174 10.1264 10.8464 10.4994L10.4434 10.9054" stroke="#F9F9F8" stroke-width="1.5" stroke-linecap="round" stroke-linejoin="round"/>
<path d="M15.8178 15.8553C14.3368 17.3293 11.8478 16.0773 9.88281 14.1113" stroke="#F9F9F8" stroke-width="1.5" stroke-linecap="round" stroke-linejoin="round"/>
<path d="M9.88807 14.1147C7.92307 12.1487 6.67107 9.66069 8.14507 8.17969" stroke="#F9F9F8" stroke-width="1.5" stroke-linecap="round" stroke-linejoin="round"/>
<path d="M10.4375 10.9053C10.7565 11.4083 11.1655 11.9063 11.6275 12.3683L11.6295 12.3703C12.0915 12.8323 12.5895 13.2413 13.0925 13.5603" stroke="#F9F9F8" stroke-width="1.5" stroke-linecap="round" stroke-linejoin="round"/>
</svg>
